…
``` r
library(knitr)        # load functions for formatting tables

# get data from rcfss package
# install latest version if not already installed
# devtools::install_github("uc-cfss/rcfss")
library(rcfss)

# load the data
data("mass_shootings")
mass_shootings
```

    ## # A tibble: 114 x 14
    ##    case   year month   day location summary fatalities injured
    ##    <chr> <dbl> <chr> <int> <chr>    <chr>        <dbl>   <dbl>
    ##  1 Dayt~  2019 Aug       4 Dayton,~ PENDING          9      27
    ##  2 El P~  2019 Aug       3 El Paso~ PENDING         20      26
    ##  3 Gilr~  2019 Jul      28 Gilroy,~ "Santi~          3      12
    ##  4 Virg~  2019 May      31 Virgini~ "DeWay~         12       4
    ##  5 Harr~  2019 Feb      15 Aurora,~ Gary M~          5       6
    ##  6 Penn~  2019 Jan      24 State C~ Jordan~          3       1
    ##  7 SunT~  2019 Jan      23 Sebring~ "Zephe~          5       0
    ##  8 Merc~  2018 Nov      19 Chicago~ Juan L~          3       0
    ##  9 Thou~  2018 Nov       7 Thousan~ Ian Da~         12      22
    ## 10 Tree~  2018 Oct      27 Pittsbu~ "Rober~         11       6
    ## # ... with 104 more rows, and 6 more variables: total_victims <dbl>,
    ## #   location_type <chr>, male <lgl>, age_of_shooter <dbl>, race <chr>,
    ## #   prior_mental_illness <chr>
…
